studyId	range.min	range.max	outcome
10	0	24	2.43
101	0	36	4.47
103	0	6	2
103	7	12	5.2
103	13	18	6
103	19	24	4.4
103	25	30	3
11	0	5	3.7
11	6	11	5
11	12	17	4.8
11	18	23	3.2
12	0	59	5.41
13	0	11	3.7
13	12	47	2.2
15	6	11	8.3
16	24	36	2.5
16	37	47	1.38
16	49	59	1.69
17	6	47	7.1
18	0	29	6
19	13	24	6.8
19	0	45	5.25
2	0	59	4.1
20	0	39	2.8
21	0	36	2.7
22	6	59	7.1
23	0	59	5.55
24	0	50	3.1
25	0	24	9.1
26	6	21	6.97
28	0	11	2.26
28	12	23	2.09
28	24	35	1.46
28	36	47	1.28
28	48	59	0.9
30	3	21	3.5
31	0	6	4.23
31	6	11	3.78
31	12	23	2.25
31	24	35	1.62
31	36	47	1.67
33	6	11	1.77
33	12	23	1.82
33	24	35	1.65
34	0	11	4.9
34	12	23	2.5
34	24	35	1
35	0	5	7.33
35	6	11	8.79
35	12	23	5.5
35	24	35	2.92
36	0	12	4.87
37	0	5	7.33
37	6	11	8.81
37	12	17	6.4
37	18	23	4.61
37	24	35	2.92
38	0	12	4.8
4	0	5	2.27
4	6	11	4.63
4	12	23	5.17
4	24	35	4.15
4	36	59	2.73
41	0	59	3.05
43	0	11	6.87
44	0	35	7.02
45	0	5	4.54
45	0	11	5.2
45	0	47	6.19
47	6	12	1.6
47	0	59	3.1
49	0	5	2.09
49	6	11	3.09
49	12	17	2.2
49	18	23	1.83
49	24	29	1.45
49	30	35	1.18
49	36	41	1.35
49	42	47	0.75
5	0	5	2.73
5	6	11	4.62
5	12	23	4.64
5	24	35	4.11
5	36	59	2.64
51	6	59	2.88
53	0	24	2.26
54	0	36	2.17
57	0	5	1.6
57	6	11	1.34
57	12	23	0.79
57	24	35	0.578
57	36	47	0.564
57	12	59	0.582
59	6	47	1.77
60	0	6	1.3
60	0	11	4.2
64	6	23	1.03
64	24	59	1.53
65	12	35	5.36
66	0	5	1.15
67	6	47	0.84
68	0	5	0.5
68	6	11	0.6
69	3	37	3.5
71	0	12	4
72	18	47	1.1
73	0	18	2.9
74	6	27	2.38
75	0	23	4
76	0	39	3.96
77	1	35	3.12
78	0	24	1.9
8	0	11	5.61
8	12	23	5.46
8	24	35	4.25
8	36	47	3.42
8	48	59	2.09
80	0	5	3.3
80	6	11	4.1
80	12	23	2.9
80	24	36	2.2
81	0	11	5.84
81	12	23	5.18
81	24	35	5.14
81	36	47	2.06
81	48	59	1.61
82	0	59	3.3
83	5	11	7.4
85	0	5	7.3
85	6	11	10.3
85	12	17	9.4
85	18	23	8.8
85	24	29	7
85	30	35	5.6
85	0	59	8.1
86	0	36	3.2
87	6	17	6.44
87	18	29	6.19
87	30	41	5.21
88	12	23	3.3
89	0	59	6.5
9	0	47	3.4
90	0	59	1.4
91	6	24	2.92
98	6	11	1.6
98	13	18	0.7
98	19	24	0.4
